<svg width="47" height="47" viewBox="0 0 47 47" fill="none" xmlns="http://www.w3.org/2000/svg">
<path d="M25 33.6864C26.1993 33.6864 27.1716 32.7142 27.1716 31.5148C27.1716 30.3155 26.1993 29.3432 25 29.3432C23.8006 29.3432 22.8284 30.3155 22.8284 31.5148C22.8284 32.7142 23.8006 33.6864 25 33.6864Z" stroke="#F26422" stroke-width="2" stroke-linecap="round" stroke-linejoin="round"/>
<path d="M28.2929 27.0723V12.9355H21.7071V27.129C20.7663 27.8225 20.0685 28.7952 19.7131 29.9086C19.3577 31.022 19.3629 32.2191 19.7279 33.3294C20.0929 34.4396 20.799 35.4063 21.7457 36.0916C22.6924 36.7769 23.8313 37.1459 25 37.1459C26.1687 37.1459 27.3076 36.7769 28.2543 36.0916C29.201 35.4063 29.9071 34.4396 30.2721 33.3294C30.6371 32.2191 30.6422 31.022 30.2868 29.9086C29.9315 28.7952 29.2336 27.8225 28.2929 27.129V27.0723Z" stroke="#3C3C3B" stroke-width="2" stroke-linecap="round" stroke-linejoin="round"/>
<path d="M25 29.1871V20.2593" stroke="#F26422" stroke-width="2" stroke-linecap="round" stroke-linejoin="round"/>
<path d="M46 25C46 36.598 36.598 46 25 46C13.402 46 4 36.598 4 25C4 13.402 13.402 4 25 4C36.598 4 46 13.402 46 25Z" stroke="#F26422" stroke-width="2" stroke-linecap="round" stroke-linejoin="round"/>
<circle cx="9" cy="9" r="8" fill="white" stroke="#F26422" stroke-width="2"/>
<path d="M11.0773 13C11.1983 13 11.2753 12.912 11.2753 12.791V11.856C11.2753 11.735 11.1983 11.658 11.0773 11.658H8.38232C10.1313 10.349 11.2533 8.919 11.2533 7.478C11.2533 6.015 10.1863 5.168 8.50332 5.168C7.76632 5.168 7.05132 5.333 6.49032 5.608C6.39132 5.652 6.33632 5.729 6.34732 5.85L6.41332 6.796C6.42432 6.939 6.57832 7.027 6.72132 6.939C7.17232 6.686 7.74432 6.532 8.26132 6.532C9.04232 6.532 9.51532 6.851 9.51532 7.511C9.51532 8.897 7.74432 10.404 6.21532 11.669C6.13832 11.724 6.09432 11.812 6.09432 11.911V12.791C6.09432 12.912 6.18232 13 6.30332 13H11.0773Z" fill="#F26422"/>
</svg>
